1,He did ________. He just slept all day long.,everything,nothing*,anything,Não lembro
2,Would you like ______ to eat?,everybody,nothing,something*,Não lembro
3,I can't find my keys ______.,somewhere,everywhere,anywhere*,Não lembro
4,Can ______ hear me?,anybody*,everybody,nobody,Não lembro
5,Has ______ done their homework?,everyone*,anything,nowhere,Não lembro
6,I am bored, there isn't ________ to do here.,something,anything*,everything,Não lembro
7,My book was on the desk ______ has taken it.,nobody,somebody*,everybody,Não lembro
8,The shop is closed. ______ has gone home.,Eveybody*,Somebody,Everything,Não lembro
9,______ at the party had a great time.,All,Few,Everyone*,Não lembro
10,Our holiday was perfect. ______ went as we wished.,Something,Nothing,Everything*,Não lembro